%YAML 1.1
%TAG !u! tag:unity3d.com,2011:
--- !u!221 &22100000
AnimatorOverrideController:
  m_ObjectHideFlags: 0
  m_CorrespondingSourceObject: {fileID: 0}
  m_PrefabInstance: {fileID: 0}
  m_PrefabAsset: {fileID: 0}
  m_Name: HellephantAnimatorOverrideController
  m_Controller: {fileID: 9100000, guid: 2cd6bf77cac24414c8e134b0c0e7aed3, type: 2}
  m_Clips:
  - m_OriginalClip: {fileID: 7400004, guid: ad950f199bb9248469b9aa5063f8acbd, type: 3}
    m_OverrideClip: {fileID: 7400004, guid: b82b421a9e6899b49acf47adbf89ee60, type: 3}
  - m_OriginalClip: {fileID: 7400002, guid: ad950f199bb9248469b9aa5063f8acbd, type: 3}
    m_OverrideClip: {fileID: 7400002, guid: b82b421a9e6899b49acf47adbf89ee60, type: 3}
  - m_OriginalClip: {fileID: 7400000, guid: ad950f199bb9248469b9aa5063f8acbd, type: 3}
    m_OverrideClip: {fileID: 7400000, guid: b82b421a9e6899b49acf47adbf89ee60, type: 3}
